rtl/timer/dump.vcd
$date
	Sun Dec 02 09:37:22 2018
$end
$version
	Icarus Verilog
$end
$timescale
	1s
$end
$scope module tb_counter $end
$var wire 8 ! reg_read_data [7:0] $end
$var wire 1 " timer_out $end
$var wire 8 # read_data [7:0] $end
$var wire 1 $ overflow_int $end
$var wire 1 % match1_int $end
$var wire 1 & match0_int $end
$var wire 1 ' clk_ext $end
$var wire 12 ( clk_div [11:0] $end
$var wire 1 ) clk $end
$var reg 6 * address [5:0] $end
$var reg 1 + module_en $end
$var reg 1 , pulses $end
$var reg 16 - random_val [15:0] $end
$var reg 1 . rst $end
$var reg 8 / write_data [7:0] $end
$var reg 1 0 write_en $end
$scope module clock_div $end
$var wire 1 ) in $end
$var reg 12 1 out [11:0] $end
$upscope $end
$scope module clock_gen $end
$var wire 1 ) out $end
$var reg 1 2 clk $end
$var reg 1 3 clock_alt $end
$var reg 1 4 enabled $end
$var integer 32 5 cycle [31:0] $end
$var real 1 6 period $end
$scope task off $end
$upscope $end
$scope task on $end
$upscope $end
$scope task set_duty_cycle $end
$var real 1 7 value $end
$upscope $end
$scope task set_period $end
$var real 1 8 value $end
$upscope $end
$upscope $end
$scope module clock_gen_ext $end
$var wire 1 ' out $end
$var reg 1 9 clk $end
$var reg 1 : clock_alt $end
$var reg 1 ; enabled $end
$var integer 32 < cycle [31:0] $end
$var real 1 = period $end
$scope task off $end
$upscope $end
$scope task on $end
$upscope $end
$scope task set_duty_cycle $end
$var real 1 > value $end
$upscope $end
$scope task set_period $end
$var real 1 ? value $end
$upscope $end
$upscope $end
$scope module d_ip_timer $end
$var wire 6 @ addr [5:0] $end
$var wire 1 ) clk $end
$var wire 1 A enable_operation $end
$var wire 1 B ext_clock_select $end
$var wire 1 + mod_en $end
$var wire 1 $ overflow_int $end
$var wire 1 C rst_b $end
$var wire 1 D start_rise $end
$var wire 1 ' timer_in $end
$var wire 1 E trigger $end
$var wire 8 F wdata [7:0] $end
$var wire 1 0 wr_en $end
$var wire 1 G trigger_int $end
$var wire 1 " timer_out $end
$var wire 1 H start $end
$var wire 8 I rdata [7:0] $end
$var wire 1 J pwm_mode $end
$var wire 3 K prescaler [2:0] $end
$var wire 1 L overflow_trg_en $end
$var wire 1 M overflow_status_flag $end
$var wire 1 N overflow_int_en $end
$var wire 1 O out_match_1_trg_en $end
$var wire 1 P out_match_1_int_en $end
$var wire 1 Q out_match_0_trg_en $end
$var wire 1 R out_match_0_int_en $end
$var wire 8 S match_1_value [7:0] $end
$var wire 8 T match_0_value [7:0] $end
$var wire 1 U inv $end
$var wire 1 V free_mode $end
$var wire 1 W edge_mode $end
$var wire 8 X counter_value [7:0] $end
$var wire 1 Y counter_overflow $end
$var wire 1 Z count_mode $end
$var wire 8 [ count_min [7:0] $end
$var wire 8 \ count_max [7:0] $end
$var wire 8 ] count_init [7:0] $end
$var wire 1 % comp_1_match_int $end
$var wire 1 & comp_0_match_int $end
$var wire 1 ^ cnt_match_1_status_flag_set $end
$var wire 1 _ cnt_match_1_status_flag $end
$var wire 1 ` cnt_match_0_status_flag_set $end
$var wire 1 a cnt_match_0_status_flag $end
$var wire 1 b cnt_init_wr $end
$var wire 1 c clock_select $end
$var wire 1 d clk_pulse $end
$var reg 1 e start_1 $end
$scope module input_block $end
$var wire 1 ) clk $end
$var wire 1 ' clk_ext $end
$var wire 1 d clk_pulse $end
$var wire 1 f neg_edge $end
$var wire 1 g pos_edge $end
$var wire 1 h rst $end
$var wire 3 i ps [2:0] $end
$var wire 1 j in_pulse $end
$var wire 1 W edge_mode $end
$var wire 1 k clk_ps $end
$var reg 8 l clk_ext_past [7:0] $end
$var reg 1 m clk_ps_past $end
$var reg 7 n ps_counter [6:0] $end
$upscope $end
$scope module output_block $end
$var wire 1 ) clk $end
$var wire 1 A en $end
$var wire 2 o flag [1:0] $end
$var wire 1 p high_pwm $end
$var wire 2 q intr [1:0] $end
$var wire 2 r intr_en [1:0] $end
$var wire 1 s low_pwm $end
$var wire 16 t match_value [15:0] $end
$var wire 1 u rst $end
$var wire 2 v trg_en [1:0] $end
$var wire 2 w trigger_internal [1:0] $end
$var wire 1 G trigger $end
$var wire 1 " timer_out $end
$var wire 1 J pwm_mode $end
$var wire 2 x match_rise [1:0] $end
$var wire 2 y match [1:0] $end
$var wire 1 U inv $end
$var wire 8 z counter_value [7:0] $end
$var reg 2 { match_past [1:0] $end
$var reg 1 | timer_out_internal $end
$scope begin genblk1[0] $end
$upscope $end
$scope begin genblk1[1] $end
$upscope $end
$scope begin genblk2[0] $end
$upscope $end
$scope begin genblk2[1] $end
$upscope $end
$upscope $end
$scope module timer_counter $end
$var wire 1 ) clk $end
$var wire 1 } cnt_mode $end
$var wire 1 A en $end
$var wire 1 ~ overflow_dwn_set $end
$var wire 1 !" overflow_up_set $end
$var wire 1 "" rst $end
$var wire 1 #" up $end
$var wire 1 Y overflow_set $end
$var wire 8 $" min [7:0] $end
$var wire 8 %" max [7:0] $end
$var wire 1 b init_cnt $end
$var wire 8 &" init [7:0] $end
$var wire 1 V free $end
$var wire 1 '" down $end
$var reg 8 (" value [7:0] $end
$upscope $end
$scope module timer_registers $end
$var wire 6 )" addr [5:0] $end
$var wire 1 ) clk $end
$var wire 8 *" cnt_match_0_reg [7:0] $end
$var wire 8 +" cnt_match_1_reg [7:0] $end
$var wire 8 ," counter_reg [7:0] $end
$var wire 1 ` match_0 $end
$var wire 1 ^ match_1 $end
$var wire 1 + module_en $end
$var wire 1 Y overflow $end
$var wire 1 -" rd_en $end
$var wire 8 ." rdata [7:0] $end
$var wire 1 /" rst $end
$var wire 8 0" wdata [7:0] $end
$var wire 1 0 wr $end
$var wire 1 1" wr_en $end
$var wire 1 2" status_reg_sel $end
$var wire 8 3" status_reg [7:0] $end
$var wire 1 4" ctrl_reg_sel $end
$var wire 8 5" ctrl_reg [7:0] $end
$var wire 1 6" ctrl_out_reg_sel $end
$var wire 8 7" ctrl_out_reg [7:0] $end
$var wire 1 8" ctrl_in_reg_sel $end
$var wire 8 9" ctrl_in_reg [7:0] $end
$var wire 1 :" cnt_reg_sel $end
$var wire 1 ;" cnt_min_reg_sel $end
$var wire 1 <" cnt_max_reg_sel $end
$var wire 1 =" cnt_match_1_sel $end
$var wire 1 >" cnt_match_0_sel $end
$var wire 1 ?" cnt_init_reg_sel $end
$var reg 1 c clock_select $end
$var reg 1 b cnt_init_wr $end
$var reg 1 a cnt_match_0_status_flag $end
$var reg 1 _ cnt_match_1_status_flag $end
$var reg 8 @" count_init [7:0] $end
$var reg 8 A" count_max [7:0] $end
$var reg 8 B" count_min [7:0] $end
$var reg 1 Z count_mode $end
$var reg 8 C" counter [7:0] $end
$var reg 1 W edge_mode $end
$var reg 1 V force_free $end
$var reg 1 U inv $end
$var reg 8 D" match_0_value [7:0] $end
$var reg 8 E" match_1_value [7:0] $end
$var reg 1 R out_match_0_int_en $end
$var reg 1 Q out_match_0_trg_en $end
$var reg 1 P out_match_1_int_en $end
$var reg 1 O out_match_1_trg_en $end
$var reg 1 N overflow_int_en $end
$var reg 1 M overflow_status_flag $end
$var reg 1 L overflow_trg_en $end
$var reg 3 F" prescaler [2:0] $end
$var reg 1 J pwm_mode $end
$var reg 8 G" rdata_mux_out [7:0] $end
$var reg 1 H start $end
$scope begin MUX $end
$upscope $end
$upscope $end
$upscope $end
$scope module testcase $end
$upscope $end
$scope task delay $end
$var reg 32 H" value [31:0] $end
$upscope $end
$scope task reg_read $end
$var reg 8 I" address [7:0] $end
$upscope $end
$scope task reg_write $end
$var reg 8 J" address [7:0] $end
$var reg 8 K" data [7:0] $end
$upscope $end
$scope task startup_task $end
$upscope $end
$upscope $end
$enddefinitions $end
#0
$dumpvars
bx K"
bx J"
bx I"
bx H"
b0 G"
bx F"
bx E"
bx D"
bx C"
bx B"
bx A"
bx @"
x?"
x>"
x="
x<"
x;"
x:"
b0xxx000x 9"
x8"
b0xxx00xx 7"
x6"
bx0xx 5"
x4"
b0xxx 3"
x2"
x1"
bx 0"
x/"
b0 ."
x-"
bx ,"
bx +"
bx *"
bx )"
bx ("
x'"
bx &"
bx %"
bx $"
x#"
x""
x!"
x~
x}
x|
bx {
bx z
bx y
bx x
bx w
bx v
xu
bx t
xs
bx r
bx q
xp
bx o
bx n
xm
bx l
xk
xj
bx i
xh
xg
xf
xe
xd
xc
xb
xa
x`
x_
x^
bx ]
bx \
bx [
xZ
xY
bx X
xW
xV
xU
bx T
bx S
xR
xQ
xP
xO
xN
xM
xL
bx K
xJ
b0 I
xH
xG
bx F
xE
xD
xC
xB
xA
bx @
r0 ?
r0 >
r200 =
b110010 <
1;
0:
09
r0 8
r0 7
r20 6
b110010 5
14
03
02
b0 1
x0
bx /
x.
b1100000 -
0,
x+
bx *
0)
b0 (
0'
x&
x%
x$
b0 #
x"
b0 !
$end
#10
0g
b1 (
b1 1
bx0 l
0b
1)
13
12
#20
0)
03
02
#30
bx00 l
b10 (
b10 1
1)
13
12
#40
0)
03
02
#50
0j
0f
b11 (
b11 1
bx000 l
1)
13
12
#60
0)
03
02
#70
bx0000 l
b100 (
b100 1
1)
13
12
#80
0)
03
02
#90
b101 (
b101 1
bx00000 l
1)
13
12
#100
0)
03
02
1'
1:
19
#110
bx000001 l
b110 (
b110 1
1)
13
12
#120
0)
03
02
#130
xj
1g
b111 (
b111 1
bx0000011 l
1)
13
12
#140
0)
03
02
#150
0j
0g
b111 l
b1000 (
b1000 1
1)
13
12
#160
0)
03
02
#170
b1001 (
b1001 1
b1111 l
1)
13
12
#180
0)
03
02
#190
b11111 l
b1010 (
b1010 1
1)
13
12
#200
0~
b11 x
0A
0d
0E
0G
b0 w
0&
0%
1`
1^
0Y
0D
1#"
0'"
1}
0k
0s
0p
0$
b0 q
b11 y
0!"
0"
0H
0Z
0B
0c
0N
0R
b0 r
0P
b0 5"
0V
0W
b0 9"
b0 K
b0 i
b0 F"
0J
0U
0L
0Q
b0 7"
b0 v
0O
0M
0a
b0 3"
b0 o
0_
b0 ]
b0 &"
b0 @"
b0 [
b0 $"
b0 B"
b11111111 \
b11111111 %"
b11111111 A"
b0 ,"
b0 C"
b0 *"
b0 T
b0 D"
b0 +"
b0 t
b0 S
b0 E"
b0 X
b0 z
b0 ("
b0 n
b0 {
0|
01"
0-"
1/"
1""
1h
1u
0)
03
02
0'
0:
09
04"
08"
06"
02"
0?"
0;"
0<"
0:"
0="
0>"
b100100 *
b100100 @
b100100 )"
b0 /
b0 F
b0 0"
00
0+
0C
1.
#210
0e
b1011 (
b1011 1
b0 l
0m
1)
13
12
#220
0)
03
02
#230
b1100 (
b1100 1
1)
13
12
#240
0)
03
02
#250
b1101 (
b1101 1
1)
13
12
#260
0)
03
02
#270
b1110 (
b1110 1
1)
13
12
#280
0)
03
02
#290
b1111 (
b1111 1
1)
13
12
#300
0)
03
02
1'
1:
19
#310
b10000 (
b10000 1
1)
13
12
#320
0)
03
02
#330
b10001 (
b10001 1
1)
13
12
#340
0)
03
02
#350
b10010 (
b10010 1
1)
13
12
#360
0)
03
02
#370
b10011 (
b10011 1
1)
13
12
#380
0)
03
02
#390
b10100 (
b10100 1
1)
13
12
#400
0/"
0""
0h
0u
0)
03
02
0'
0:
09
b0 I"
1C
0.
#410
b0 x
1-"
b10101 (
b10101 1
1+
14"
b0 *
b0 @
b0 )"
b11 {
1)
13
12
#420
0)
03
02
#430
0-"
b1 K"
b0 J"
b10110 (
b10110 1
0+
1)
13
12
#440
0)
03
02
#450
11"
0-"
b10111 (
b10111 1
10
1+
b1 /
b1 F
b1 0"
1)
13
12
#460
0)
03
02
#470
1e
1~
1A
01"
b1 G"
0D
00
0+
b0 /
b0 F
b0 0"
b11000 (
b11000 1
b1 5"
1H
1)
13
12
#480
0)
03
02
#490
b1 !
b1 #
b1 I
b1 ."
1-"
0~
0^
0`
b11001 (
b11001 1
1+
b0 {
b0 y
b1 X
b1 z
b1 ("
1_
b110 3"
b11 o
1a
1)
13
12
#500
0)
03
02
1'
1:
19
#510
b0 !
b0 #
b0 I
b0 ."
0-"
b1111101000 H"
b1 l
b11010 (
b11010 1
0+
b10 X
b10 z
b10 ("
1)
13
12
#520
0)
03
02
#530
1d
1k
1j
1g
b11011 (
b11011 1
b11 l
b11 X
b11 z
b11 ("
1)
13
12
#540
0)
03
02
#550
0k
0j
0g
0d
1m
b111 l
b11100 (
b11100 1
b1 n
b100 X
b100 z
b100 ("
1)
13
12
#560
0)
03
02
#570
b11101 (
b11101 1
b1111 l
0m
b101 X
b101 z
b101 ("
1)
13
12
#580
0)
03
02
#590
b11111 l
b11110 (
b11110 1
b110 X
b110 z
b110 ("
1)
13
12
#600
0)
03
02
0'
0:
09
#610
b11111 (
b11111 1
b111110 l
b111 X
b111 z
b111 ("
1)
13
12
#620
0)
03
02
#630
1f
b1111100 l
b100000 (
b100000 1
b1000 X
b1000 z
b1000 ("
1)
13
12
#640
0)
03
02
#650
0f
b100001 (
b100001 1
b11111000 l
b1001 X
b1001 z
b1001 ("
1)
13
12
#660
0)
03
02
#670
b11110000 l
b100010 (
b100010 1
b1010 X
b1010 z
b1010 ("
1)
13
12
#680
0)
03
02
#690
b100011 (
b100011 1
b11100000 l
b1011 X
b1011 z
b1011 ("
1)
13
12
#700
0)
03
02
1'
1:
19
#710
b11000001 l
b100100 (
b100100 1
b1100 X
b1100 z
b1100 ("
1)
13
12
#720
0)
03
02
#730
1d
1k
1j
1g
b100101 (
b100101 1
b10000011 l
b1101 X
b1101 z
b1101 ("
1)
13
12
#740
0)
03
02
#750
0k
0j
0g
0d
1m
b111 l
b100110 (
b100110 1
b10 n
b1110 X
b1110 z
b1110 ("
1)
13
12
#760
0)
03
02
#770
b100111 (
b100111 1
b1111 l
0m
b1111 X
b1111 z
b1111 ("
1)
13
12
#780
0)
03
02
#790
b11111 l
b101000 (
b101000 1
b10000 X
b10000 z
b10000 ("
1)
13
12
#800
0)
03
02
0'
0:
09
#810
b101001 (
b101001 1
b111110 l
b10001 X
b10001 z
b10001 ("
1)
13
12
#820
0)
03
02
#830
1f
b1111100 l
b101010 (
b101010 1
b10010 X
b10010 z
b10010 ("
1)
13
12
#840
0)
03
02
#850
0f
b101011 (
b101011 1
b11111000 l
b10011 X
b10011 z
b10011 ("
1)
13
12
#860
0)
03
02
#870
b11110000 l
b101100 (
b101100 1
b10100 X
b10100 z
b10100 ("
1)
13
12
#880
0)
03
02
#890
b101101 (
b101101 1
b11100000 l
b10101 X
b10101 z
b10101 ("
1)
13
12
#900
0)
03
02
1'
1:
19
#910
b11000001 l
b101110 (
b101110 1
b10110 X
b10110 z
b10110 ("
1)
13
12
#920
0)
03
02
#930
1d
1k
1j
1g
b101111 (
b101111 1
b10000011 l
b10111 X
b10111 z
b10111 ("
1)
13
12
#940
0)
03
02
#950
0k
0j
0g
0d
1m
b111 l
b110000 (
b110000 1
b11 n
b11000 X
b11000 z
b11000 ("
1)
13
12
#960
0)
03
02
#970
b110001 (
b110001 1
b1111 l
0m
b11001 X
b11001 z
b11001 ("
1)
13
12
#980
0)
03
02
#990
b11111 l
b110010 (
b110010 1
b11010 X
b11010 z
b11010 ("
1)
13
12
#1000
0)
03
02
0'
0:
09
#1010
b110011 (
b110011 1
b111110 l
b11011 X
b11011 z
b11011 ("
1)
13
12
#1020
0)
03
02
#1030
1f
b1111100 l
b110100 (
b110100 1
b11100 X
b11100 z
b11100 ("
1)
13
12
#1040
0)
03
02
#1050
0f
b110101 (
b110101 1
b11111000 l
b11101 X
b11101 z
b11101 ("
1)
13
12
#1060
0)
03
02
#1070
b11110000 l
b110110 (
b110110 1
b11110 X
b11110 z
b11110 ("
1)
13
12
#1080
0)
03
02
#1090
b110111 (
b110111 1
b11100000 l
b11111 X
b11111 z
b11111 ("
1)
13
12
#1100
0)
03
02
1'
1:
19
#1110
b11000001 l
b111000 (
b111000 1
b100000 X
b100000 z
b100000 ("
1)
13
12
#1120
0)
03
02
#1130
1d
1k
1j
1g
b111001 (
b111001 1
b10000011 l
b100001 X
b100001 z
b100001 ("
1)
13
12
#1140
0)
03
02
#1150
0k
0j
0g
0d
1m
b111 l
b111010 (
b111010 1
b100 n
b100010 X
b100010 z
b100010 ("
1)
13
12
#1160
0)
03
02
#1170
b111011 (
b111011 1
b1111 l
0m
b100011 X
b100011 z
b100011 ("
1)
13
12
#1180
0)
03
02
#1190
b11111 l
b111100 (
b111100 1
b100100 X
b100100 z
b100100 ("
1)
13
12
#1200
0)
03
02
0'
0:
09
#1210
b111101 (
b111101 1
b111110 l
b100101 X
b100101 z
b100101 ("
1)
13
12
#1220
0)
03
02
#1230
1f
b1111100 l
b111110 (
b111110 1
b100110 X
b100110 z
b100110 ("
1)
13
12
#1240
0)
03
02
#1250
0f
b111111 (
b111111 1
b11111000 l
b100111 X
b100111 z
b100111 ("
1)
13
12
#1260
0)
03
02
#1270
b11110000 l
b1000000 (
b1000000 1
b101000 X
b101000 z
b101000 ("
1)
13
12
#1280
0)
03
02
#1290
b1000001 (
b1000001 1
b11100000 l
b101001 X
b101001 z
b101001 ("
1)
13
12
#1300
0)
03
02
1'
1:
19
#1310
b11000001 l
b1000010 (
b1000010 1
b101010 X
b101010 z
b101010 ("
1)
13
12
#1320
0)
03
02
#1330
1d
1k
1j
1g
b1000011 (
b1000011 1
b10000011 l
b101011 X
b101011 z
b101011 ("
1)
13
12
#1340
0)
03
02
#1350
0k
0j
0g
0d
1m
b111 l
b1000100 (
b1000100 1
b101 n
b101100 X
b101100 z
b101100 ("
1)
13
12
#1360
0)
03
02
#1370
b1000101 (
b1000101 1
b1111 l
0m
b101101 X
b101101 z
b101101 ("
1)
13
12
#1380
0)
03
02
#1390
b11111 l
b1000110 (
b1000110 1
b101110 X
b101110 z
b101110 ("
1)
13
12
#1400
0)
03
02
0'
0:
09
#1410
b1000111 (
b1000111 1
b111110 l
b101111 X
b101111 z
b101111 ("
1)
13
12
#1420
0)
03
02
#1430
1f
b1111100 l
b1001000 (
b1001000 1
b110000 X
b110000 z
b110000 ("
1)
13
12
#1440
0)
03
02
#1450
0f
b1001001 (
b1001001 1
b11111000 l
b110001 X
b110001 z
b110001 ("
1)
13
12
#1460
0)
03
02
#1470
b11110000 l
b1001010 (
b1001010 1
b110010 X
b110010 z
b110010 ("
1)
13
12
#1480
0)
03
02
#1490
b1001011 (
b1001011 1
b11100000 l
b110011 X
b110011 z
b110011 ("
1)
13
12
#1500
0)
03
02
1'
1:
19
#1510
b11000001 l
b1001100 (
b1001100 1
b110100 X
b110100 z
b110100 ("
1)
13
12
#1520
0)
03
02
#1530
1d
1k
1j
1g
b1001101 (
b1001101 1
b10000011 l
b110101 X
b110101 z
b110101 ("
1)
13
12
#1540
0)
03
02
#1550
0k
0j
0g
0d
1m
b111 l
b1001110 (
b1001110 1
b110 n
b110110 X
b110110 z
b110110 ("
1)
13
12
#1560
0)
03
02
#1570
b1001111 (
b1001111 1
b1111 l
0m
b110111 X
b110111 z
b110111 ("
1)
13
12
#1580
0)
03
02
#1590
b11111 l
b1010000 (
b1010000 1
b111000 X
b111000 z
b111000 ("
1)
13
12
#1600
0)
03
02
0'
0:
09
#1610
b1010001 (
b1010001 1
b111110 l
b111001 X
b111001 z
b111001 ("
1)
13
12
#1620
0)
03
02
#1630
1f
b1111100 l
b1010010 (
b1010010 1
b111010 X
b111010 z
b111010 ("
1)
13
12
#1640
0)
03
02
#1650
0f
b1010011 (
b1010011 1
b11111000 l
b111011 X
b111011 z
b111011 ("
1)
13
12
#1660
0)
03
02
#1670
b11110000 l
b1010100 (
b1010100 1
b111100 X
b111100 z
b111100 ("
1)
13
12
#1680
0)
03
02
#1690
b1010101 (
b1010101 1
b11100000 l
b111101 X
b111101 z
b111101 ("
1)
13
12
#1700
0)
03
02
1'
1:
19
#1710
b11000001 l
b1010110 (
b1010110 1
b111110 X
b111110 z
b111110 ("
1)
13
12
#1720
0)
03
02
#1730
1d
1k
1j
1g
b1010111 (
b1010111 1
b10000011 l
b111111 X
b111111 z
b111111 ("
1)
13
12
#1740
0)
03
02
#1750
0k
0j
0g
0d
1m
b111 l
b1011000 (
b1011000 1
b111 n
b1000000 X
b1000000 z
b1000000 ("
1)
13
12
#1760
0)
03
02
#1770
b1011001 (
b1011001 1
b1111 l
0m
b1000001 X
b1000001 z
b1000001 ("
1)
13
12
#1780
0)
03
02
#1790
b11111 l
b1011010 (
b1011010 1
b1000010 X
b1000010 z
b1000010 ("
1)
13
12
#1800
0)
03
02
0'
0:
09
#1810
b1011011 (
b1011011 1
b111110 l
b1000011 X
b1000011 z
b1000011 ("
1)
13
12
#1820
0)
03
02
#1830
1f
b1111100 l
b1011100 (
b1011100 1
b1000100 X
b1000100 z
b1000100 ("
1)
13
12
#1840
0)
03
02
#1850
0f
b1011101 (
b1011101 1
b11111000 l
b1000101 X
b1000101 z
b1000101 ("
1)
13
12
#1860
0)
03
02
#1870
b11110000 l
b1011110 (
b1011110 1
b1000110 X
b1000110 z
b1000110 ("
1)
13
12
#1880
0)
03
02
#1890
b1011111 (
b1011111 1
b11100000 l
b1000111 X
b1000111 z
b1000111 ("
1)
13
12
#1900
0)
03
02
1'
1:
19
#1910
b11000001 l
b1100000 (
b1100000 1
b1001000 X
b1001000 z
b1001000 ("
1)
13
12
#1920
0)
03
02
#1930
1d
1k
1j
1g
b1100001 (
b1100001 1
b10000011 l
b1001001 X
b1001001 z
b1001001 ("
1)
13
12
#1940
0)
03
02
#1950
0k
0j
0g
0d
1m
b111 l
b1100010 (
b1100010 1
b1000 n
b1001010 X
b1001010 z
b1001010 ("
1)
13
12
#1960
0)
03
02
#1970
b1100011 (
b1100011 1
b1111 l
0m
b1001011 X
b1001011 z
b1001011 ("
1)
13
12
#1980
0)
03
02
#1990
b11111 l
b1100100 (
b1100100 1
b1001100 X
b1001100 z
b1001100 ("
1)
13
12
#2000
0)
03
02
0'
0:
09
#2010
b1100101 (
b1100101 1
b111110 l
b1001101 X
b1001101 z
b1001101 ("
1)
13
12
#2020
0)
03
02
#2030
1f
b1111100 l
b1100110 (
b1100110 1
b1001110 X
b1001110 z
b1001110 ("
1)
13
12
#2040
0)
03
02
#2050
0f
b1100111 (
b1100111 1
b11111000 l
b1001111 X
b1001111 z
b1001111 ("
1)
13
12
#2060
0)
03
02
#2070
b11110000 l
b1101000 (
b1101000 1
b1010000 X
b1010000 z
b1010000 ("
1)
13
12
#2080
0)
03
02
#2090
b1101001 (
b1101001 1
b11100000 l
b1010001 X
b1010001 z
b1010001 ("
1)
13
12
#2100
0)
03
02
1'
1:
19
#2110
b11000001 l
b1101010 (
b1101010 1
b1010010 X
b1010010 z
b1010010 ("
1)
13
12
#2120
0)
03
02
#2130
1d
1k
1j
1g
b1101011 (
b1101011 1
b10000011 l
b1010011 X
b1010011 z
b1010011 ("
1)
13
12
#2140
0)
03
02
#2150
0k
0j
0g
0d
1m
b111 l
b1101100 (
b1101100 1
b1001 n
b1010100 X
b1010100 z
b1010100 ("
1)
13
12
#2160
0)
03
02
#2170
b1101101 (
b1101101 1
b1111 l
0m
b1010101 X
b1010101 z
b1010101 ("
1)
13
12
#2180
0)
03
02
#2190
b11111 l
b1101110 (
b1101110 1
b1010110 X
b1010110 z
b1010110 ("
1)
13
12
#2200
0)
03
02
0'
0:
09
#2210
b1101111 (
b1101111 1
b111110 l
b1010111 X
b1010111 z
b1010111 ("
1)
13
12
#2220
0)
03
02
#2230
1f
b1111100 l
b1110000 (
b1110000 1
b1011000 X
b1011000 z
b1011000 ("
1)
13
12
#2240
0)
03
02
#2250
0f
b1110001 (
b1110001 1
b11111000 l
b1011001 X
b1011001 z
b1011001 ("
1)
13
12
#2260
0)
03
02
#2270
b11110000 l
b1110010 (
b1110010 1
b1011010 X
b1011010 z
b1011010 ("
1)
13
12
#2280
0)
03
02
#2290
b1110011 (
b1110011 1
b11100000 l
b1011011 X
b1011011 z
b1011011 ("
1)
13
12
#2300
0)
03
02
1'
1:
19
#2310
b110001 -
1,
b11000001 l
b1110100 (
b1110100 1
b1011100 X
b1011100 z
b1011100 ("
1)
13
12
#2320
0)
03
02
#2330
1d
1k
1j
1g
b1110101 (
b1110101 1
b10000011 l
b1011101 X
b1011101 z
b1011101 ("
1)
13
12
#2340
0)
03
02
#2350
0k
0j
0g
0d
1m
b111 l
b1110110 (
b1110110 1
b1010 n
b1011110 X
b1011110 z
b1011110 ("
1)
13
12
#2360
0)
03
02
#2370
b1110111 (
b1110111 1
b1111 l
0m
b1011111 X
b1011111 z
b1011111 ("
1)
13
12
#2380
0)
03
02
#2390
b11111 l
b1111000 (
b1111000 1
b1100000 X
b1100000 z
b1100000 ("
1)
13
12
#2400
0)
03
02
0'
0:
09
#2410
b1111001 (
b1111001 1
b111110 l
b1100001 X
b1100001 z
b1100001 ("
1)
13
12
#2420
0)
03
02
#2430
1f
b1111100 l
b1111010 (
b1111010 1
b1100010 X
b1100010 z
b1100010 ("
1)
13
12
#2440
0)
03
02
#2450
0f
b1111011 (
b1111011 1
b11111000 l
b1100011 X
b1100011 z
b1100011 ("
1)
13
12
#2460
0)
03
02
#2470
b11110000 l
b1111100 (
b1111100 1
b1100100 X
b1100100 z
b1100100 ("
1)
13
12
#2480
0)
03
02
#2490
b1111101 (
b1111101 1
b11100000 l
b1100101 X
b1100101 z
b1100101 ("
1)
13
12
#2500
0)
03
02
1'
1:
19
#2510
b11000001 l
b1111110 (
b1111110 1
b1100110 X
b1100110 z
b1100110 ("
1)
13
12
#2520
0)
03
02
#2530
1d
1k
1j
1g
b1111111 (
b1111111 1
b10000011 l
b1100111 X
b1100111 z
b1100111 ("
1)
13
12
#2540
0)
03
02
#2550
0k
0j
0g
0d
1m
b111 l
b10000000 (
b10000000 1
b1011 n
b1101000 X
b1101000 z
b1101000 ("
1)
13
12
#2560
0)
03
02
#2570
b10000001 (
b10000001 1
b1111 l
0m
b1101001 X
b1101001 z
b1101001 ("
1)
13
12
#2580
0)
03
02
#2590
b11111 l
b10000010 (
b10000010 1
b1101010 X
b1101010 z
b1101010 ("
1)
13
12
#2600
0)
03
02
0'
0:
09
#2610
b10000011 (
b10000011 1
b111110 l
b1101011 X
b1101011 z
b1101011 ("
1)
13
12
#2620
0)
03
02
#2630
1f
b1111100 l
b10000100 (
b10000100 1
b1101100 X
b1101100 z
b1101100 ("
1)
13
12
#2640
0)
03
02
#2650
0f
b10000101 (
b10000101 1
b11111000 l
b1101101 X
b1101101 z
b1101101 ("
1)
13
12
#2660
0)
03
02
#2670
b11110000 l
b10000110 (
b10000110 1
b1101110 X
b1101110 z
b1101110 ("
1)
13
12
#2680
0)
03
02
#2690
b10000111 (
b10000111 1
b11100000 l
b1101111 X
b1101111 z
b1101111 ("
1)
13
12
#2700
0)
03
02
1'
1:
19
#2710
b11000001 l
b10001000 (
b10001000 1
b1110000 X
b1110000 z
b1110000 ("
1)
13
12
#2720
0)
03
02
#2730
1d
1k
1j
1g
b10001001 (
b10001001 1
b10000011 l
b1110001 X
b1110001 z
b1110001 ("
1)
13
12
#2740
0)
03
02
#2750
0k
0j
0g
0d
1m
b111 l
b10001010 (
b10001010 1
b1100 n
b1110010 X
b1110010 z
b1110010 ("
1)
13
12
#2760
0)
03
02
#2770
b10001011 (
b10001011 1
b1111 l
0m
b1110011 X
b1110011 z
b1110011 ("
1)
13
12
#2780
0)
03
02
#2790
b11111 l
b10001100 (
b10001100 1
b1110100 X
b1110100 z
b1110100 ("
1)
13
12
#2800
0)
03
02
0'
0:
09
#2810
b10001101 (
b10001101 1
b111110 l
b1110101 X
b1110101 z
b1110101 ("
1)
13
12
#2820
0)
03
02
#2830
1f
b1111100 l
b10001110 (
b10001110 1
b1110110 X
b1110110 z
b1110110 ("
1)
13
12
#2840
0)
03
02
#2850
0f
b10001111 (
b10001111 1
b11111000 l
b1110111 X
b1110111 z
b1110111 ("
1)
13
12
#2860
0)
03
02
#2870
b11110000 l
b10010000 (
b10010000 1
b1111000 X
b1111000 z
b1111000 ("
1)
13
12
#2880
0)
03
02
#2890
b10010001 (
b10010001 1
b11100000 l
b1111001 X
b1111001 z
b1111001 ("
1)
13
12
#2900
0)
03
02
1'
1:
19
#2910
b11000001 l
b10010010 (
b10010010 1
b1111010 X
b1111010 z
b1111010 ("
1)
13
12
#2920
0)
03
02
#2930
1d
1k
1j
1g
b10010011 (
b10010011 1
b10000011 l
b1111011 X
b1111011 z
b1111011 ("
1)
13
12
#2940
0)
03
02
#2950
0k
0j
0g
0d
1m
b111 l
b10010100 (
b10010100 1
b1101 n
b1111100 X
b1111100 z
b1111100 ("
1)
13
12
#2960
0)
03
02
#2970
b10010101 (
b10010101 1
b1111 l
0m
b1111101 X
b1111101 z
b1111101 ("
1)
13
12
#2980
0)
03
02
#2990
b11111 l
b10010110 (
b10010110 1
b1111110 X
b1111110 z
b1111110 ("
1)
13
12
#3000
0)
03
02
0'
0:
09
#3010
b10010111 (
b10010111 1
b111110 l
b1111111 X
b1111111 z
b1111111 ("
1)
13
12
#3020
0)
03
02
#3030
1f
b1111100 l
b10011000 (
b10011000 1
b10000000 X
b10000000 z
b10000000 ("
1)
13
12
#3040
0)
03
02
#3050
0f
b10011001 (
b10011001 1
b11111000 l
b10000001 X
b10000001 z
b10000001 ("
1)
13
12
#3060
0)
03
02
#3070
b11110000 l
b10011010 (
b10011010 1
b10000010 X
b10000010 z
b10000010 ("
1)
13
12
#3080
0)
03
02
#3090
b10011011 (
b10011011 1
b11100000 l
b10000011 X
b10000011 z
b10000011 ("
1)
13
12
#3100
0)
03
02
1'
1:
19
#3110
b11000001 l
b10011100 (
b10011100 1
b10000100 X
b10000100 z
b10000100 ("
1)
13
12
#3120
0)
03
02
